{
  "articles": [
    {
      "authors": [
        {
          "id": "",
          "title": "Andreas Victorzon",
          "newsroom": {
            "id": "omninext",
            "title": "Omni Ekonomi"
          }
        }
      ],
      "resources": [
        {
          "type": "Image",
          "byline": {
            "title": "Dado Ruvic / TT NYHETSBYRÅN"
          },
          "source_id": "SAFRICA-CRIME_BITCOIN680957.jpg",
          "image_asset": {
            "id": "c800f994-e844-4712-b270-e52954859210",
            "size": {
              "width": 3499,
              "height": 1752
            }
          },
          "characteristics": {
            "figure": false,
            "sensitive": false
          }
        },
        {
          "ref": "category",
          "id": "38e9c8064a9b42ee894fd7da5867e8f7",
          "title": "Ekonomi",
          "type": "StoryVignette"
        },
        {
          "type": "Title",
          "text": {
            "value": "Facit: 160 miljarder dollar i Bitcoin gick upp i rök i år"
          }
        },
        {
          "type": "Byline",
          "published": "2019-01-01T19:42:23Z",
          "authors": [
            {
              "id": "",
              "title": "Andreas Victorzon",
              "newsroom": "Omni Ekonomi"
            }
          ],
          "fallback_email": "redaktion@omni.se"
        },
        {
          "type": "Text",
          "paragraphs": [
            {
              "text": {
                "value": "Efter att ha stigit nästan 1 400 procent under 2017 tappade bitcoin nästan 75 procent."
              },
              "block_type": "paragraph"
            }
          ],
          "vignette": {
            "title": "Ekonomi",
            "bullet_color": {
              "red": 249,
              "green": 172,
              "blue": 23
            }
          }
        },
        {
          "url": "https://www.wsj.com/articles/cryptos-2019-goal-technology-people-can-use-11546347601",
          "data": {
            "canonical_url": "https://www.wsj.com/articles/cryptos-2019-goal-technology-people-can-use-11546347601"
          },
          "type": "Url",
          "title": {
            "value": "Investerarna ser ännu få användningsområden för bitcoin (betallänk)"
          },
          "source": "www.wsj.com"
        },
        {
          "url": "https://www.marketwatch.com/investing/cryptocurrency/btcusd",
          "data": {
            "canonical_url": "https://www.marketwatch.com/investing/cryptocurrency/btcusd"
          },
          "type": "Url",
          "label": "live",
          "title": {
            "value": "Följ bitcoins kursutveckling här"
          },
          "source": "www.marketwatch.com"
        },
        {
          "type": "Webview",
          "url": "https://omni-ad-blocket.herokuapp.com/ads?category=ekonomi",
          "height": 450,
          "id": "stepstone"
        }
      ],
      "meta": {
        "source": {
          "id": "omninext",
          "type": "licensed",
          "title": "Omni Ekonomi",
          "authors": [
            "Andreas Victorzon"
          ],
          "reference": "nge3gx",
          "originators": [
            {
              "id": "7840e0fd-bb3b-422f-9704-8b3f244c91ef",
              "type": "id",
              "title": "Andreas Victorzon",
              "description": "Språkguru"
            }
          ]
        },
        "changes": {
          "bumped": null,
          "created": "2019-01-01T19:40:31Z",
          "updated": "2019-01-01T19:42:56Z",
          "published": "2019-01-01T19:42:23Z",
          "bumped_value": false,
          "first_published": "2019-01-01T19:42:23Z"
        },
        "version": 3,
        "is_sticky": false,
        "newsvalue": 6,
        "is_deleted": false,
        "is_sponsored": false,
        "machine_tags": {},
        "news_lifetime": 2,
        "custom_properties": {
          "bump": false,
          "sticky": ""
        }
      },
      "tags": [
        {
          "type": "descriptor",
          "title": "Bitcoin",
          "topic_id": "b29ef0fffcba5cf9006181d37d30832fb4b9752d"
        },
        {
          "type": "descriptor",
          "title": "Valuta",
          "topic_id": "eba677dc486617f8fbaa4b1f143704d9e819ec11"
        },
        {
          "type": "descriptor",
          "title": "Kryptovaluta",
          "topic_id": "1b783f1d-e1a0-4606-89bf-512f7d320522"
        }
      ],
      "type": "Article",
      "category": {
        "category_id": "38e9c8064a9b42ee894fd7da5867e8f7",
        "title": "Ekonomi",
        "slug": "ekonomi",
        "large_threshold": 7,
        "icon": {
          "image_url": "https://storage.omni.se/category_icons/omni/icOmniDot.png",
          "color": {
            "red": 249,
            "green": 172,
            "blue": 23
          }
        },
        "color": {
          "red": 249,
          "green": 172,
          "blue": 23
        },
        "default": 0.66
      },
      "changes": {
        "published": "2019-01-01T19:42:23Z",
        "modified": "2019-01-01T19:42:56Z"
      },
      "main_resource": {
        "type": "Image",
        "byline": {
          "title": "Dado Ruvic / TT NYHETSBYRÅN"
        },
        "source_id": "SAFRICA-CRIME_BITCOIN680957.jpg",
        "image_asset": {
          "id": "c800f994-e844-4712-b270-e52954859210",
          "size": {
            "width": 3499,
            "height": 1752
          }
        },
        "characteristics": {
          "figure": false,
          "sensitive": false
        }
      },
      "story_vignette": {
        "ref": "category",
        "id": "38e9c8064a9b42ee894fd7da5867e8f7",
        "title": "Ekonomi"
      }
    }
  ]
}
